{
  "project_info": {
    "project_number": "241511956643",
    "firebase_url": "https://finan-9702a.firebaseio.com",
    "project_id": "finan-9702a",
    "storage_bucket": "finan-9702a.appspot.com"
  },
  "client": [
    {
      "client_info": {
        "mobilesdk_app_id": "1:241511956643:android:c86b6966e639bd34",
        "android_client_info": {
          "package_name": "com.example.damian.finan"
        }
      },
      "oauth_client": [
        {
          "client_id": "241511956643-ta9669icnj090e6k2oouo66cg5pb4loc.apps.googleusercontent.com",
          "client_type": 1,
          "android_info": {
            "package_name": "com.example.damian.finan",
            "certificate_hash": "f900b9dd6e94698bfc0d9e6a071ccfd5f3422f5f"
          }
        },
        {
          "client_id": "241511956643-kbln2o5g685dkdebn1mf2i6us9dnaahi.apps.googleusercontent.com",
          "client_type": 3
        }
      ],
      "api_key": [
        {
          "current_key": "AIzaSyBQNXiRjYm09fIVfjP8wMW4kZ2t8-jnpFY"
        }
      ],
      "services": {
        "analytics_service": {
          "status": 1
        },
        "appinvite_service": {
          "status": 2,
          "other_platform_oauth_client": [
            {
              "client_id": "241511956643-kbln2o5g685dkdebn1mf2i6us9dnaahi.apps.googleusercontent.com",
              "client_type": 3
            }
          ]
        },
        "ads_service": {
          "status": 2
        }
      }
    }
  ],
  "configuration_version": "1"
}